\relax 
\providecommand\hyper@newdestlabel[2]{}
\providecommand\HyperFirstAtBeginDocument{\AtBeginDocument}
\HyperFirstAtBeginDocument{\ifx\hyper@anchor\@undefined
\global\let\oldcontentsline\contentsline
\gdef\contentsline#1#2#3#4{\oldcontentsline{#1}{#2}{#3}}
\global\let\oldnewlabel\newlabel
\gdef\newlabel#1#2{\newlabelxx{#1}#2}
\gdef\newlabelxx#1#2#3#4#5#6{\oldnewlabel{#1}{{#2}{#3}}}
\AtEndDocument{\ifx\hyper@anchor\@undefined
\let\contentsline\oldcontentsline
\let\newlabel\oldnewlabel
\fi}
\fi}
\global\let\hyper@last\relax 
\gdef\HyperFirstAtBeginDocument#1{#1}
\providecommand\HyField@AuxAddToFields[1]{}
\providecommand\HyField@AuxAddToCoFields[2]{}
\@writefile{@@@}{\chapterbegin }
\@writefile{toc}{\contentsline {chapter}{Abstract}{v}{chapter*.2}}
\@writefile{@@@}{\chapterbegin }
\@writefile{toc}{\contentsline {chapter}{Preface}{vii}{chapter*.3}}
\@writefile{@@@}{\chapterbegin }
\newlabel{sec:symbols}{{}{ix}{Symbols}{chapter*.4}{}}
\newlabel{sec:symbols@cref}{{}{ix}}
\@writefile{toc}{\contentsline {chapter}{Symbols}{ix}{chapter*.4}}
\@writefile{@@@}{\chapterbegin }
\citation{*}
\@writefile{toc}{\contentsline {chapter}{\numberline {1}Introduction}{1}{chapter.1}}
\@writefile{lof}{\addvspace {10\p@ }}
\@writefile{lot}{\addvspace {10\p@ }}
\@writefile{lof}{\contentsline {xchapter}{Introduction}{1}{chapter.1}}
\@writefile{lot}{\contentsline {xchapter}{Introduction}{1}{chapter.1}}
\newlabel{sec:introduction}{{1}{1}{Introduction}{chapter.1}{}}
\newlabel{sec:introduction@cref}{{[chapter][1][]1}{1}}
\@writefile{toc}{\contentsline {section}{\numberline {1.1}{\normalfont  \textsc  {Scubo}} - our Robot}{2}{section.1.1}}
\newlabel{sec:scuborobot}{{1.1}{2}{{\normalfont \textsc {Scubo}} - our Robot}{section.1.1}{}}
\newlabel{sec:scuborobot@cref}{{[section][1][1]1.1}{2}}
\@writefile{lof}{\contentsline {figure}{\numberline {1.1}{\ignorespaces Final Concept of \textsc  {Scubo}}}{2}{figure.1.1}}
\newlabel{pics:scuborobot}{{1.1}{2}{Final Concept of \textsc {Scubo}}{figure.1.1}{}}
\newlabel{pics:scuborobot@cref}{{[figure][1][1]1.1}{2}}
\@writefile{toc}{\contentsline {section}{\numberline {1.2}What is a Focus Project?}{2}{section.1.2}}
\newlabel{sec:focusproject}{{1.2}{2}{What is a Focus Project?}{section.1.2}{}}
\newlabel{sec:focusproject@cref}{{[section][2][1]1.2}{2}}
\@writefile{toc}{\contentsline {subsection}{\numberline {1.2.1}{\normalfont  \textsc  {Sepios}} and {\normalfont  \textsc  {Nanins}}}{3}{subsection.1.2.1}}
\newlabel{sec:sepiosnanins}{{1.2.1}{3}{{\normalfont \textsc {Sepios}} and {\normalfont \textsc {Nanins}}}{subsection.1.2.1}{}}
\newlabel{sec:sepiosnanins@cref}{{[subsection][1][1,2]1.2.1}{3}}
\@writefile{lof}{\contentsline {figure}{\numberline {1.2}{\ignorespaces \textsc  {Sepios} - Focus Project of 2013/2014}}{3}{figure.1.2}}
\newlabel{pics:sepios}{{1.2}{3}{\textsc {Sepios} - Focus Project of 2013/2014}{figure.1.2}{}}
\newlabel{pics:sepios@cref}{{[figure][2][1]1.2}{3}}
\@writefile{lof}{\contentsline {figure}{\numberline {1.3}{\ignorespaces \textsc  {Naro-Nanins} - Project of 2013}}{3}{figure.1.3}}
\newlabel{pics:nanins}{{1.3}{3}{\textsc {Naro-Nanins} - Project of 2013}{figure.1.3}{}}
\newlabel{pics:nanins@cref}{{[figure][3][1]1.3}{3}}
\@writefile{toc}{\contentsline {section}{\numberline {1.3}Goals and Vision}{4}{section.1.3}}
\newlabel{sec:GoalVis}{{1.3}{4}{Goals and Vision}{section.1.3}{}}
\newlabel{sec:GoalVis@cref}{{[section][3][1]1.3}{4}}
\@writefile{toc}{\contentsline {section}{\numberline {1.4}Key Features}{4}{section.1.4}}
\newlabel{sec:keyfeatures}{{1.4}{4}{Key Features}{section.1.4}{}}
\newlabel{sec:keyfeatures@cref}{{[section][4][1]1.4}{4}}
\@writefile{toc}{\contentsline {subsection}{\numberline {1.4.1}Omnidirectionality}{4}{subsection.1.4.1}}
\newlabel{sec:omnidirectional}{{1.4.1}{4}{Omnidirectionality}{subsection.1.4.1}{}}
\newlabel{sec:omnidirectional@cref}{{[subsection][1][1,4]1.4.1}{4}}
\@writefile{toc}{\contentsline {subsection}{\numberline {1.4.2}Modularity}{4}{subsection.1.4.2}}
\newlabel{sec:modularity}{{1.4.2}{4}{Modularity}{subsection.1.4.2}{}}
\newlabel{sec:modularity@cref}{{[subsection][2][1,4]1.4.2}{4}}
\@writefile{toc}{\contentsline {subsection}{\numberline {1.4.3}3D Modelling}{5}{subsection.1.4.3}}
\newlabel{sec:3dmodel}{{1.4.3}{5}{3D Modelling}{subsection.1.4.3}{}}
\newlabel{sec:3dmodel@cref}{{[subsection][3][1,4]1.4.3}{5}}
\@writefile{toc}{\contentsline {subsection}{\numberline {1.4.4}Telepresence}{5}{subsection.1.4.4}}
\newlabel{sec:telepresence}{{1.4.4}{5}{Telepresence}{subsection.1.4.4}{}}
\newlabel{sec:telepresence@cref}{{[subsection][4][1,4]1.4.4}{5}}
\@writefile{toc}{\contentsline {section}{\numberline {1.5}Main Challenges}{5}{section.1.5}}
\newlabel{sec:main_challenges}{{1.5}{5}{Main Challenges}{section.1.5}{}}
\newlabel{sec:main_challenges@cref}{{[section][5][1]1.5}{5}}
\@writefile{toc}{\contentsline {subsection}{\numberline {1.5.1}Localisation}{5}{subsection.1.5.1}}
\newlabel{sec:localization}{{1.5.1}{5}{Localisation}{subsection.1.5.1}{}}
\newlabel{sec:localization@cref}{{[subsection][1][1,5]1.5.1}{5}}
\@writefile{toc}{\contentsline {subsection}{\numberline {1.5.2}Collision Avoidance}{5}{subsection.1.5.2}}
\newlabel{sec:collision_avoidance}{{1.5.2}{5}{Collision Avoidance}{subsection.1.5.2}{}}
\newlabel{sec:collision_avoidance@cref}{{[subsection][2][1,5]1.5.2}{5}}
\@writefile{toc}{\contentsline {subsection}{\numberline {1.5.3}Sealing}{5}{subsection.1.5.3}}
\newlabel{sec:sealingintro}{{1.5.3}{5}{Sealing}{subsection.1.5.3}{}}
\newlabel{sec:sealingintro@cref}{{[subsection][3][1,5]1.5.3}{5}}
\@writefile{lof}{\contentsline {figure}{\numberline {1.4}{\ignorespaces Coordinate System}}{6}{figure.1.4}}
\newlabel{pics:coordinate_system}{{1.4}{6}{Coordinate System}{figure.1.4}{}}
\newlabel{pics:coordinate_system@cref}{{[figure][4][1]1.4}{6}}
\@writefile{toc}{\contentsline {subsection}{\numberline {1.5.4}Maintenance}{6}{subsection.1.5.4}}
\newlabel{sec:maintainance}{{1.5.4}{6}{Maintenance}{subsection.1.5.4}{}}
\newlabel{sec:maintainance@cref}{{[subsection][4][1,5]1.5.4}{6}}
\@writefile{toc}{\contentsline {section}{\numberline {1.6}Conventions}{6}{section.1.6}}
\newlabel{sec:conventions}{{1.6}{6}{Conventions}{section.1.6}{}}
\newlabel{sec:conventions@cref}{{[section][6][1]1.6}{6}}
\@writefile{toc}{\contentsline {subsection}{\numberline {1.6.1}Coordinates}{6}{subsection.1.6.1}}
\@writefile{toc}{\contentsline {subsection}{\numberline {1.6.2}Parts of the robot}{6}{subsection.1.6.2}}
\@writefile{toc}{\contentsline {subsubsection}{Main box}{6}{section*.8}}
\@writefile{lof}{\contentsline {figure}{\numberline {1.5}{\ignorespaces CAD Model of \textsc  {Scubo}}}{7}{figure.1.5}}
\newlabel{pics:conventions}{{1.5}{7}{CAD Model of \textsc {Scubo}}{figure.1.5}{}}
\newlabel{pics:conventions@cref}{{[figure][5][1]1.5}{7}}
\@writefile{toc}{\contentsline {subsubsection}{Hatches}{7}{section*.9}}
\@writefile{toc}{\contentsline {subsubsection}{Thruster}{7}{section*.10}}
\@writefile{toc}{\contentsline {subsubsection}{VI-Sensor}{7}{section*.11}}
\@writefile{toc}{\contentsline {subsubsection}{Camera}{7}{section*.12}}
\@writefile{toc}{\contentsline {subsubsection}{Modular ports}{7}{section*.13}}
\@writefile{toc}{\contentsline {subsubsection}{Outer shell}{7}{section*.14}}
\@writefile{toc}{\contentsline {subsection}{\numberline {1.6.3}Special terms in the report }{8}{subsection.1.6.3}}
\@writefile{toc}{\contentsline {subsubsection}{Modularity}{8}{section*.15}}
\@writefile{toc}{\contentsline {subsubsection}{Omnidirectionality}{8}{section*.16}}
\@writefile{toc}{\contentsline {section}{\numberline {1.7}The Team}{8}{section.1.7}}
\newlabel{sec:team}{{1.7}{8}{The Team}{section.1.7}{}}
\newlabel{sec:team@cref}{{[section][7][1]1.7}{8}}
\@writefile{toc}{\contentsline {section}{\numberline {1.8}Project Organization}{8}{section.1.8}}
\newlabel{sec:ProjOrganization}{{1.8}{8}{Project Organization}{section.1.8}{}}
\newlabel{sec:ProjOrganization@cref}{{[section][8][1]1.8}{8}}
\@writefile{toc}{\contentsline {subsection}{\numberline {1.8.1}Team management}{8}{subsection.1.8.1}}
\newlabel{sec:teammanagement}{{1.8.1}{8}{Team management}{subsection.1.8.1}{}}
\newlabel{sec:teammanagement@cref}{{[subsection][1][1,8]1.8.1}{8}}
\@writefile{lof}{\contentsline {figure}{\numberline {1.6}{\ignorespaces The Team of Project \textsc  {Scubo}}}{9}{figure.1.6}}
\newlabel{pics:team}{{1.6}{9}{The Team of Project \textsc {Scubo}}{figure.1.6}{}}
\newlabel{pics:team@cref}{{[figure][6][1]1.6}{9}}
\@writefile{lot}{\contentsline {table}{\numberline {1.1}{\ignorespaces Responsibility Assignment}}{10}{table.1.1}}
\newlabel{tab:tabresp}{{1.1}{10}{Responsibility Assignment}{table.1.1}{}}
\newlabel{tab:tabresp@cref}{{[table][1][1]1.1}{10}}
\@writefile{toc}{\contentsline {subsection}{\numberline {1.8.2}Timetable and Milestones}{10}{subsection.1.8.2}}
\newlabel{sec:timetable}{{1.8.2}{10}{Timetable and Milestones}{subsection.1.8.2}{}}
\newlabel{sec:timetable@cref}{{[subsection][2][1,8]1.8.2}{10}}
\@writefile{lot}{\contentsline {table}{\numberline {1.2}{\ignorespaces Milestones}}{10}{table.1.2}}
\newlabel{tab:tabmilestones}{{1.2}{10}{Milestones}{table.1.2}{}}
\newlabel{tab:tabmilestones@cref}{{[table][2][1]1.2}{10}}
\@writefile{toc}{\contentsline {subsection}{\numberline {1.8.3}Management supporting software}{11}{subsection.1.8.3}}
\newlabel{sec:software_intro}{{1.8.3}{11}{Management supporting software}{subsection.1.8.3}{}}
\newlabel{sec:software_intro@cref}{{[subsection][3][1,8]1.8.3}{11}}
\@writefile{toc}{\contentsline {section}{\numberline {1.9}Costs and Sponsoring}{11}{section.1.9}}
\newlabel{sec:costs}{{1.9}{11}{Costs and Sponsoring}{section.1.9}{}}
\newlabel{sec:costs@cref}{{[section][9][1]1.9}{11}}
\@writefile{lot}{\contentsline {table}{\numberline {1.3}{\ignorespaces Sponsor packages}}{12}{table.1.3}}
\newlabel{tab:sponsors}{{1.3}{12}{Sponsor packages}{table.1.3}{}}
\newlabel{tab:sponsors@cref}{{[table][3][1]1.3}{12}}
\@writefile{lof}{\contentsline {figure}{\numberline {1.7}{\ignorespaces Expenses of 1\textsuperscript  {st} Semester in Blue, Projected Expenses of 2\textsuperscript  {nd} Semester in Orange.}}{12}{figure.1.7}}
\newlabel{fig:costs}{{1.7}{12}{Expenses of 1\textsuperscript {st} Semester in Blue, Projected Expenses of 2\textsuperscript {nd} Semester in Orange}{figure.1.7}{}}
\newlabel{fig:costs@cref}{{[figure][7][1]1.7}{12}}
\@writefile{toc}{\contentsline {chapter}{\numberline {2}Design Process}{13}{chapter.2}}
\@writefile{lof}{\addvspace {10\p@ }}
\@writefile{lot}{\addvspace {10\p@ }}
\@writefile{lof}{\contentsline {xchapter}{Design Process}{13}{chapter.2}}
\@writefile{lot}{\contentsline {xchapter}{Design Process}{13}{chapter.2}}
\newlabel{sec:designprocess}{{2}{13}{Design Process}{chapter.2}{}}
\newlabel{sec:designprocess@cref}{{[chapter][2][]2}{13}}
\@writefile{toc}{\contentsline {section}{\numberline {2.1}Guidelines by \textsc  {DRZ}}{14}{section.2.1}}
\newlabel{sec:guidelines}{{2.1}{14}{Guidelines by \textsc {DRZ}}{section.2.1}{}}
\newlabel{sec:guidelines@cref}{{[section][1][2]2.1}{14}}
\@writefile{lof}{\contentsline {figure}{\numberline {2.1}{\ignorespaces Presentation Focus Project}}{14}{figure.2.1}}
\newlabel{pics:fokuspres}{{2.1}{14}{Presentation Focus Project}{figure.2.1}{}}
\newlabel{pics:fokuspres@cref}{{[figure][1][2]2.1}{14}}
\@writefile{toc}{\contentsline {section}{\numberline {2.2}Existing Underwater Robots}{14}{section.2.2}}
\newlabel{sec:existingrobots}{{2.2}{14}{Existing Underwater Robots}{section.2.2}{}}
\newlabel{sec:existingrobots@cref}{{[section][2][2]2.2}{14}}
\@writefile{lof}{\contentsline {figure}{\numberline {2.2}{\ignorespaces The \textsc  {COTSbot}}}{15}{figure.2.2}}
\newlabel{pics:cotsbot}{{2.2}{15}{The \textsc {COTSbot}}{figure.2.2}{}}
\newlabel{pics:cotsbot@cref}{{[figure][2][2]2.2}{15}}
\@writefile{lof}{\contentsline {figure}{\numberline {2.3}{\ignorespaces \textsc  {OpenROV Trident}}}{15}{figure.2.3}}
\newlabel{pics:trident}{{2.3}{15}{\textsc {OpenROV Trident}}{figure.2.3}{}}
\newlabel{pics:trident@cref}{{[figure][3][2]2.3}{15}}
\@writefile{lof}{\contentsline {figure}{\numberline {2.4}{\ignorespaces Manual Control with Joystick and a VR Headset}}{16}{figure.2.4}}
\newlabel{pics:trident2}{{2.4}{16}{Manual Control with Joystick and a VR Headset}{figure.2.4}{}}
\newlabel{pics:trident2@cref}{{[figure][4][2]2.4}{16}}
\@writefile{toc}{\contentsline {section}{\numberline {2.3}Requirements}{16}{section.2.3}}
\newlabel{sec:requirements}{{2.3}{16}{Requirements}{section.2.3}{}}
\newlabel{sec:requirements@cref}{{[section][3][2]2.3}{16}}
\@writefile{toc}{\contentsline {section}{\numberline {2.4}Concept}{17}{section.2.4}}
\@writefile{toc}{\contentsline {subsection}{\numberline {2.4.1}Shape}{17}{subsection.2.4.1}}
\newlabel{sec:shape}{{2.4.1}{17}{Shape}{subsection.2.4.1}{}}
\newlabel{sec:shape@cref}{{[subsection][1][2,4]2.4.1}{17}}
\@writefile{toc}{\contentsline {subsection}{\numberline {2.4.2}Cameras and Light}{17}{subsection.2.4.2}}
\@writefile{lof}{\contentsline {figure}{\numberline {2.5}{\ignorespaces Possible Shapes for \textsc  {Scubo}.}}{18}{figure.2.5}}
\newlabel{fig:shape}{{2.5}{18}{Possible Shapes for \textsc {Scubo}}{figure.2.5}{}}
\newlabel{fig:shape@cref}{{[figure][5][2]2.5}{18}}
\@writefile{toc}{\contentsline {subsection}{\numberline {2.4.3}Localisation and Collision Avoidance}{18}{subsection.2.4.3}}
\@writefile{toc}{\contentsline {subsection}{\numberline {2.4.4}Propulsion}{19}{subsection.2.4.4}}
\newlabel{sec:techsol}{{2.4.4}{19}{Propulsion}{subsection.2.4.4}{}}
\newlabel{sec:techsol@cref}{{[subsection][4][2,4]2.4.4}{19}}
\@writefile{lof}{\contentsline {figure}{\numberline {2.6}{\ignorespaces \textsc  {BlueRobotics} T200 Thruster}}{19}{figure.2.6}}
\newlabel{fig:t200}{{2.6}{19}{\textsc {BlueRobotics} T200 Thruster}{figure.2.6}{}}
\newlabel{fig:t200@cref}{{[figure][6][2]2.6}{19}}
\@writefile{toc}{\contentsline {subsubsection}{Evaluation of arrangement}{19}{section*.17}}
\@writefile{lof}{\contentsline {figure}{\numberline {2.7}{\ignorespaces Three Remaining Concepts before Decision}}{20}{figure.2.7}}
\newlabel{fig:eval_prop}{{2.7}{20}{Three Remaining Concepts before Decision}{figure.2.7}{}}
\newlabel{fig:eval_prop@cref}{{[figure][7][2]2.7}{20}}
\@writefile{toc}{\contentsline {subsection}{\numberline {2.4.5}Duct in Box}{20}{subsection.2.4.5}}
\newlabel{sec:holeinbox}{{2.4.5}{20}{Duct in Box}{subsection.2.4.5}{}}
\newlabel{sec:holeinbox@cref}{{[subsection][5][2,4]2.4.5}{20}}
\@writefile{toc}{\contentsline {subsection}{\numberline {2.4.6}Accessibility}{20}{subsection.2.4.6}}
\newlabel{sec:accessibility}{{2.4.6}{20}{Accessibility}{subsection.2.4.6}{}}
\newlabel{sec:accessibility@cref}{{[subsection][6][2,4]2.4.6}{20}}
\@writefile{toc}{\contentsline {subsection}{\numberline {2.4.7}Final concept}{21}{subsection.2.4.7}}
\newlabel{sec:finalconcept}{{2.4.7}{21}{Final concept}{subsection.2.4.7}{}}
\newlabel{sec:finalconcept@cref}{{[subsection][7][2,4]2.4.7}{21}}
\@writefile{toc}{\contentsline {section}{\numberline {2.5}Subsystems}{21}{section.2.5}}
\newlabel{sec:subsystems}{{2.5}{21}{Subsystems}{section.2.5}{}}
\newlabel{sec:subsystems@cref}{{[section][5][2]2.5}{21}}
\@writefile{toc}{\contentsline {section}{\numberline {2.6}Risk Analysis}{22}{section.2.6}}
\newlabel{sec:risk_analysis}{{2.6}{22}{Risk Analysis}{section.2.6}{}}
\newlabel{sec:risk_analysis@cref}{{[section][6][2]2.6}{22}}
\@writefile{toc}{\contentsline {chapter}{\numberline {3}Mechanical Design}{25}{chapter.3}}
\@writefile{lof}{\addvspace {10\p@ }}
\@writefile{lot}{\addvspace {10\p@ }}
\@writefile{lof}{\contentsline {xchapter}{Mechanical Design}{25}{chapter.3}}
\@writefile{lot}{\contentsline {xchapter}{Mechanical Design}{25}{chapter.3}}
\newlabel{sec:mechanical}{{3}{25}{Mechanical Design}{chapter.3}{}}
\newlabel{sec:mechanical@cref}{{[chapter][3][]3}{25}}
\@writefile{toc}{\contentsline {section}{\numberline {3.1}Overview}{26}{section.3.1}}
\newlabel{sec:overview}{{3.1}{26}{Overview}{section.3.1}{}}
\newlabel{sec:overview@cref}{{[section][1][3]3.1}{26}}
\@writefile{toc}{\contentsline {section}{\numberline {3.2}Central Unit}{26}{section.3.2}}
\newlabel{sec:central_unit}{{3.2}{26}{Central Unit}{section.3.2}{}}
\newlabel{sec:central_unit@cref}{{[section][2][3]3.2}{26}}
\@writefile{lof}{\contentsline {figure}{\numberline {3.1}{\ignorespaces Central Unit: Carbon Box with Hatches}}{26}{figure.3.1}}
\newlabel{pics:central_unit}{{3.1}{26}{Central Unit: Carbon Box with Hatches}{figure.3.1}{}}
\newlabel{pics:central_unit@cref}{{[figure][1][3]3.1}{26}}
\@writefile{toc}{\contentsline {subsection}{\numberline {3.2.1}Dimensions}{26}{subsection.3.2.1}}
\newlabel{sec:main_box_dimensions}{{3.2.1}{26}{Dimensions}{subsection.3.2.1}{}}
\newlabel{sec:main_box_dimensions@cref}{{[subsection][1][3,2]3.2.1}{26}}
\@writefile{lof}{\contentsline {figure}{\numberline {3.2}{\ignorespaces Arrangements of Electronics on the inside of \textsc  {Scubo}}}{27}{figure.3.2}}
\newlabel{fig:arrangements}{{3.2}{27}{Arrangements of Electronics on the inside of \textsc {Scubo}}{figure.3.2}{}}
\newlabel{fig:arrangements@cref}{{[figure][2][3]3.2}{27}}
\@writefile{lof}{\contentsline {figure}{\numberline {3.3}{\ignorespaces Final Cable Prototype}}{27}{figure.3.3}}
\newlabel{fig:final_arrangement}{{3.3}{27}{Final Cable Prototype}{figure.3.3}{}}
\newlabel{fig:final_arrangement@cref}{{[figure][3][3]3.3}{27}}
\@writefile{toc}{\contentsline {subsection}{\numberline {3.2.2}Material}{27}{subsection.3.2.2}}
\newlabel{sec:main_box_material}{{3.2.2}{27}{Material}{subsection.3.2.2}{}}
\newlabel{sec:main_box_material@cref}{{[subsection][2][3,2]3.2.2}{27}}
\@writefile{toc}{\contentsline {subsubsection}{Corrosion}{28}{section*.18}}
\@writefile{toc}{\contentsline {subsection}{\numberline {3.2.3}Hatches}{28}{subsection.3.2.3}}
\newlabel{sec:hatches}{{3.2.3}{28}{Hatches}{subsection.3.2.3}{}}
\newlabel{sec:hatches@cref}{{[subsection][3][3,2]3.2.3}{28}}
\@writefile{toc}{\contentsline {subsection}{\numberline {3.2.4}Supports}{28}{subsection.3.2.4}}
\newlabel{sec:support}{{3.2.4}{28}{Supports}{subsection.3.2.4}{}}
\newlabel{sec:support@cref}{{[subsection][4][3,2]3.2.4}{28}}
\@writefile{toc}{\contentsline {section}{\numberline {3.3}Exterior Parts}{28}{section.3.3}}
\@writefile{toc}{\contentsline {subsection}{\numberline {3.3.1}Modular Ports}{28}{subsection.3.3.1}}
\newlabel{sec:modularports}{{3.3.1}{28}{Modular Ports}{subsection.3.3.1}{}}
\newlabel{sec:modularports@cref}{{[subsection][1][3,3]3.3.1}{28}}
\@writefile{lof}{\contentsline {figure}{\numberline {3.4}{\ignorespaces Cable Gland}}{29}{figure.3.4}}
\newlabel{fig:cablegland}{{3.4}{29}{Cable Gland}{figure.3.4}{}}
\newlabel{fig:cablegland@cref}{{[figure][4][3]3.4}{29}}
\@writefile{lof}{\contentsline {figure}{\numberline {3.5}{\ignorespaces Section of a Modular Port with a mounted Camera Case}}{29}{figure.3.5}}
\newlabel{fig:modports}{{3.5}{29}{Section of a Modular Port with a mounted Camera Case}{figure.3.5}{}}
\newlabel{fig:modports@cref}{{[figure][5][3]3.5}{29}}
\@writefile{toc}{\contentsline {subsection}{\numberline {3.3.2}Thruster Arms}{29}{subsection.3.3.2}}
\newlabel{sec:thrusterarms}{{3.3.2}{29}{Thruster Arms}{subsection.3.3.2}{}}
\newlabel{sec:thrusterarms@cref}{{[subsection][2][3,3]3.3.2}{29}}
\@writefile{lof}{\contentsline {figure}{\numberline {3.6}{\ignorespaces Thruster Arm: Screws to adjust Weight}}{30}{figure.3.6}}
\newlabel{pics:thruster_arm}{{3.6}{30}{Thruster Arm: Screws to adjust Weight}{figure.3.6}{}}
\newlabel{pics:thruster_arm@cref}{{[figure][6][3]3.6}{30}}
\@writefile{toc}{\contentsline {subsection}{\numberline {3.3.3}VI-Sensor Housing}{30}{subsection.3.3.3}}
\newlabel{sec:visensor}{{3.3.3}{30}{VI-Sensor Housing}{subsection.3.3.3}{}}
\newlabel{sec:visensor@cref}{{[subsection][3][3,3]3.3.3}{30}}
\@writefile{lof}{\contentsline {figure}{\numberline {3.7}{\ignorespaces VI-Sensor Housing}}{30}{figure.3.7}}
\newlabel{pics:VI-Sensor}{{3.7}{30}{VI-Sensor Housing}{figure.3.7}{}}
\newlabel{pics:VI-Sensor@cref}{{[figure][7][3]3.7}{30}}
\@writefile{toc}{\contentsline {subsection}{\numberline {3.3.4}Front and Rear Bumper}{30}{subsection.3.3.4}}
\newlabel{sec:bumpers}{{3.3.4}{30}{Front and Rear Bumper}{subsection.3.3.4}{}}
\newlabel{sec:bumpers@cref}{{[subsection][4][3,3]3.3.4}{30}}
\@writefile{lof}{\contentsline {figure}{\numberline {3.8}{\ignorespaces Front and Rear Bumper before Anodic Treatment}}{31}{figure.3.8}}
\newlabel{fig:bumpers}{{3.8}{31}{Front and Rear Bumper before Anodic Treatment}{figure.3.8}{}}
\newlabel{fig:bumpers@cref}{{[figure][8][3]3.8}{31}}
\@writefile{toc}{\contentsline {subsection}{\numberline {3.3.5}Lamp Support}{31}{subsection.3.3.5}}
\@writefile{toc}{\contentsline {section}{\numberline {3.4}Weight and Balance}{31}{section.3.4}}
\newlabel{sec:weight}{{3.4}{31}{Weight and Balance}{section.3.4}{}}
\newlabel{sec:weight@cref}{{[section][4][3]3.4}{31}}
\@writefile{toc}{\contentsline {section}{\numberline {3.5}Sealing}{32}{section.3.5}}
\newlabel{sec:sealing}{{3.5}{32}{Sealing}{section.3.5}{}}
\newlabel{sec:sealing@cref}{{[section][5][3]3.5}{32}}
\@writefile{toc}{\contentsline {subsubsection}{Cable Glands}{32}{section*.19}}
\newlabel{sec:glands}{{3.5}{32}{Cable Glands}{section*.19}{}}
\newlabel{sec:glands@cref}{{[section][5][3]3.5}{32}}
\@writefile{toc}{\contentsline {subsubsection}{O-Rings}{32}{section*.20}}
\newlabel{sec:oring}{{3.5}{32}{O-Rings}{section*.20}{}}
\newlabel{sec:oring@cref}{{[section][5][3]3.5}{32}}
\@writefile{lof}{\contentsline {figure}{\numberline {3.9}{\ignorespaces Radial and Normal O-Ring Sealing of Camera on Top}}{32}{figure.3.9}}
\newlabel{fig:oring}{{3.9}{32}{Radial and Normal O-Ring Sealing of Camera on Top}{figure.3.9}{}}
\newlabel{fig:oring@cref}{{[figure][9][3]3.9}{32}}
\@writefile{toc}{\contentsline {subsubsection}{Gaskets}{32}{section*.21}}
\newlabel{sec:gaskets}{{3.5}{32}{Gaskets}{section*.21}{}}
\newlabel{sec:gaskets@cref}{{[section][5][3]3.5}{32}}
\@writefile{toc}{\contentsline {section}{\numberline {3.6}FEM Check-Up}{32}{section.3.6}}
\newlabel{sec:fem}{{3.6}{32}{FEM Check-Up}{section.3.6}{}}
\newlabel{sec:fem@cref}{{[section][6][3]3.6}{32}}
\@writefile{lof}{\contentsline {figure}{\numberline {3.10}{\ignorespaces O-Ring and Gasket Front Camera}}{33}{figure.3.10}}
\newlabel{fig:gasket}{{3.10}{33}{O-Ring and Gasket Front Camera}{figure.3.10}{}}
\newlabel{fig:gasket@cref}{{[figure][10][3]3.10}{33}}
\@writefile{toc}{\contentsline {chapter}{\numberline {4}Electronics}{35}{chapter.4}}
\@writefile{lof}{\addvspace {10\p@ }}
\@writefile{lot}{\addvspace {10\p@ }}
\@writefile{lof}{\contentsline {xchapter}{Electronics}{35}{chapter.4}}
\@writefile{lot}{\contentsline {xchapter}{Electronics}{35}{chapter.4}}
\newlabel{sec:electronics}{{4}{35}{Electronics}{chapter.4}{}}
\newlabel{sec:electronics@cref}{{[chapter][4][]4}{35}}
\@writefile{toc}{\contentsline {section}{\numberline {4.1}Cameras}{36}{section.4.1}}
\newlabel{sec:Cams}{{4.1}{36}{Cameras}{section.4.1}{}}
\newlabel{sec:Cams@cref}{{[section][1][4]4.1}{36}}
\@writefile{toc}{\contentsline {subsection}{\numberline {4.1.1}Challenges in Photography}{36}{subsection.4.1.1}}
\newlabel{sec:introphoto}{{4.1.1}{36}{Challenges in Photography}{subsection.4.1.1}{}}
\newlabel{sec:introphoto@cref}{{[subsection][1][4,1]4.1.1}{36}}
\@writefile{toc}{\contentsline {subsection}{\numberline {4.1.2}Selection of Cameras and Lenses}{36}{subsection.4.1.2}}
\newlabel{sec:cameras}{{4.1.2}{36}{Selection of Cameras and Lenses}{subsection.4.1.2}{}}
\newlabel{sec:cameras@cref}{{[subsection][2][4,1]4.1.2}{36}}
\@writefile{lof}{\contentsline {figure}{\numberline {4.1}{\ignorespaces Side and Top View of all Angles of View}}{37}{figure.4.1}}
\newlabel{fig:sideview}{{4.1}{37}{Side and Top View of all Angles of View}{figure.4.1}{}}
\newlabel{fig:sideview@cref}{{[figure][1][4]4.1}{37}}
\@writefile{toc}{\contentsline {subsubsection}{Focal lengths and aperture of the cameras}{37}{section*.22}}
\@writefile{toc}{\contentsline {subsubsection}{Zoom effect}{38}{section*.23}}
\@writefile{lot}{\contentsline {table}{\numberline {4.1}{\ignorespaces Final Selection of Cameras}}{38}{table.4.1}}
\newlabel{tab:cameras}{{4.1}{38}{Final Selection of Cameras}{table.4.1}{}}
\newlabel{tab:cameras@cref}{{[table][1][4]4.1}{38}}
\@writefile{toc}{\contentsline {section}{\numberline {4.2}Lights}{38}{section.4.2}}
\newlabel{sec:lights}{{4.2}{38}{Lights}{section.4.2}{}}
\newlabel{sec:lights@cref}{{[section][2][4]4.2}{38}}
\@writefile{toc}{\contentsline {subsection}{\numberline {4.2.1}General need for Light Sources}{38}{subsection.4.2.1}}
\@writefile{toc}{\contentsline {subsection}{\numberline {4.2.2}Amount of Luminous Flux}{39}{subsection.4.2.2}}
\@writefile{toc}{\contentsline {subsection}{\numberline {4.2.3}Postion of the Lamps}{39}{subsection.4.2.3}}
\@writefile{toc}{\contentsline {subsection}{\numberline {4.2.4}Opening Angle of the Light Cone}{39}{subsection.4.2.4}}
\@writefile{toc}{\contentsline {subsection}{\numberline {4.2.5}Outlook}{39}{subsection.4.2.5}}
\@writefile{lof}{\contentsline {figure}{\numberline {4.2}{\ignorespaces Light Reflected on Floating Particles}}{40}{figure.4.2}}
\newlabel{fig:floatpart}{{4.2}{40}{Light Reflected on Floating Particles}{figure.4.2}{}}
\newlabel{fig:floatpart@cref}{{[figure][2][4]4.2}{40}}
\@writefile{toc}{\contentsline {section}{\numberline {4.3}Sensors}{40}{section.4.3}}
\newlabel{sec:sensors}{{4.3}{40}{Sensors}{section.4.3}{}}
\newlabel{sec:sensors@cref}{{[section][3][4]4.3}{40}}
\@writefile{toc}{\contentsline {section}{\numberline {4.4}Central Computing Unit}{41}{section.4.4}}
\newlabel{sec:computing_unit}{{4.4}{41}{Central Computing Unit}{section.4.4}{}}
\newlabel{sec:computing_unit@cref}{{[section][4][4]4.4}{41}}
\@writefile{toc}{\contentsline {subsection}{\numberline {4.4.1}Vision Unit - Intel NUC}{41}{subsection.4.4.1}}
\newlabel{subsec:nuc}{{4.4.1}{41}{Vision Unit - Intel NUC}{subsection.4.4.1}{}}
\newlabel{subsec:nuc@cref}{{[subsection][1][4,4]4.4.1}{41}}
\@writefile{lof}{\contentsline {figure}{\numberline {4.3}{\ignorespaces The Inside of an \textsc  {Intel} NUC5i5RYH}}{41}{figure.4.3}}
\newlabel{pics:nuc}{{4.3}{41}{The Inside of an \textsc {Intel} NUC5i5RYH}{figure.4.3}{}}
\newlabel{pics:nuc@cref}{{[figure][3][4]4.3}{41}}
\@writefile{toc}{\contentsline {subsection}{\numberline {4.4.2}Control Unit - UDOO QUAD}{42}{subsection.4.4.2}}
\newlabel{subsec:raspi}{{4.4.2}{42}{Control Unit - UDOO QUAD}{subsection.4.4.2}{}}
\newlabel{subsec:raspi@cref}{{[subsection][2][4,4]4.4.2}{42}}
\newlabel{tab:tabcontrolunit}{{4.4.2}{42}{Control Unit - UDOO QUAD}{subsection.4.4.2}{}}
\newlabel{tab:tabcontrolunit@cref}{{[subsection][2][4,4]4.4.2}{42}}
\@writefile{lot}{\contentsline {table}{\numberline {4.2}{\ignorespaces Control Unit Evaluation}}{42}{table.4.2}}
\@writefile{lof}{\contentsline {figure}{\numberline {4.4}{\ignorespaces Illustration of the UDOO QUAD}}{42}{figure.4.4}}
\newlabel{pics:udoo}{{4.4}{42}{Illustration of the UDOO QUAD}{figure.4.4}{}}
\newlabel{pics:udoo@cref}{{[figure][4][4]4.4}{42}}
\@writefile{toc}{\contentsline {subsection}{\numberline {4.4.3}Battery}{42}{subsection.4.4.3}}
\newlabel{subsec:battery}{{4.4.3}{42}{Battery}{subsection.4.4.3}{}}
\newlabel{subsec:battery@cref}{{[subsection][3][4,4]4.4.3}{42}}
\@writefile{toc}{\contentsline {section}{\numberline {4.5}VI Sensor}{43}{section.4.5}}
\newlabel{sec:vi}{{4.5}{43}{VI Sensor}{section.4.5}{}}
\newlabel{sec:vi@cref}{{[section][5][4]4.5}{43}}
\@writefile{toc}{\contentsline {subsection}{\numberline {4.5.1}Localisation}{44}{subsection.4.5.1}}
\newlabel{sec:vilocal}{{4.5.1}{44}{Localisation}{subsection.4.5.1}{}}
\newlabel{sec:vilocal@cref}{{[subsection][1][4,5]4.5.1}{44}}
\@writefile{toc}{\contentsline {subsection}{\numberline {4.5.2}Collision Avoidance}{44}{subsection.4.5.2}}
\newlabel{sec:vicoll}{{4.5.2}{44}{Collision Avoidance}{subsection.4.5.2}{}}
\newlabel{sec:vicoll@cref}{{[subsection][2][4,5]4.5.2}{44}}
\@writefile{toc}{\contentsline {section}{\numberline {4.6}Laser}{44}{section.4.6}}
\newlabel{sec:laser}{{4.6}{44}{Laser}{section.4.6}{}}
\newlabel{sec:laser@cref}{{[section][6][4]4.6}{44}}
\@writefile{toc}{\contentsline {chapter}{\numberline {5}Software}{45}{chapter.5}}
\@writefile{lof}{\addvspace {10\p@ }}
\@writefile{lot}{\addvspace {10\p@ }}
\@writefile{lof}{\contentsline {xchapter}{Software}{45}{chapter.5}}
\@writefile{lot}{\contentsline {xchapter}{Software}{45}{chapter.5}}
\newlabel{sec:software}{{5}{45}{Software}{chapter.5}{}}
\newlabel{sec:software@cref}{{[chapter][5][]5}{45}}
\@writefile{toc}{\contentsline {section}{\numberline {5.1}Operating System}{46}{section.5.1}}
\@writefile{toc}{\contentsline {subsection}{\numberline {5.1.1}Robot Operating System (ROS)}{46}{subsection.5.1.1}}
\newlabel{sec:ros}{{5.1.1}{46}{Robot Operating System (ROS)}{subsection.5.1.1}{}}
\newlabel{sec:ros@cref}{{[subsection][1][5,1]5.1.1}{46}}
\@writefile{toc}{\contentsline {subsection}{\numberline {5.1.2}Situation}{46}{subsection.5.1.2}}
\newlabel{sec:situation}{{5.1.2}{46}{Situation}{subsection.5.1.2}{}}
\newlabel{sec:situation@cref}{{[subsection][2][5,1]5.1.2}{46}}
\@writefile{toc}{\contentsline {subsubsection}{Communication Structure}{46}{section*.24}}
\newlabel{sec:communication_struct}{{5.1.2}{46}{Communication Structure}{section*.24}{}}
\newlabel{sec:communication_struct@cref}{{[subsection][2][5,1]5.1.2}{46}}
\@writefile{lof}{\contentsline {figure}{\numberline {5.1}{\ignorespaces Communication Structure}}{47}{figure.5.1}}
\newlabel{fig:communication_struct}{{5.1}{47}{Communication Structure}{figure.5.1}{}}
\newlabel{fig:communication_struct@cref}{{[figure][1][5]5.1}{47}}
\@writefile{toc}{\contentsline {subsubsection}{Communication between Machines}{47}{section*.25}}
\newlabel{sec:comm_machine}{{5.1.2}{47}{Communication between Machines}{section*.25}{}}
\newlabel{sec:comm_machine@cref}{{[subsection][2][5,1]5.1.2}{47}}
\@writefile{toc}{\contentsline {subsection}{\numberline {5.1.3}Software Packages}{47}{subsection.5.1.3}}
\newlabel{sec:soft_pack}{{5.1.3}{47}{Software Packages}{subsection.5.1.3}{}}
\newlabel{sec:soft_pack@cref}{{[subsection][3][5,1]5.1.3}{47}}
\@writefile{toc}{\contentsline {subsubsection}{Version Control}{47}{section*.26}}
\newlabel{sec:version_control}{{5.1.3}{47}{Version Control}{section*.26}{}}
\newlabel{sec:version_control@cref}{{[subsection][3][5,1]5.1.3}{47}}
\@writefile{toc}{\contentsline {section}{\numberline {5.2}Modelling}{48}{section.5.2}}
\newlabel{sec:modeling}{{5.2}{48}{Modelling}{section.5.2}{}}
\newlabel{sec:modeling@cref}{{[section][2][5]5.2}{48}}
\@writefile{toc}{\contentsline {subsection}{\numberline {5.2.1}Kinematics}{48}{subsection.5.2.1}}
\newlabel{sec:kinematics}{{5.2.1}{48}{Kinematics}{subsection.5.2.1}{}}
\newlabel{sec:kinematics@cref}{{[subsection][1][5,2]5.2.1}{48}}
\@writefile{toc}{\contentsline {subsection}{\numberline {5.2.2}Dynamics}{49}{subsection.5.2.2}}
\newlabel{sec:dynamics}{{5.2.2}{49}{Dynamics}{subsection.5.2.2}{}}
\newlabel{sec:dynamics@cref}{{[subsection][2][5,2]5.2.2}{49}}
\newlabel{eq:eom}{{5.13}{49}{Dynamics}{equation.5.2.13}{}}
\newlabel{eq:eom@cref}{{[equation][13][5]5.13}{49}}
\citation{AntonelliAntonelli2014}
\citation{Fossen1994}
\@writefile{toc}{\contentsline {subsection}{\numberline {5.2.3}Simulink Model}{50}{subsection.5.2.3}}
\newlabel{sec:sim_model}{{5.2.3}{50}{Simulink Model}{subsection.5.2.3}{}}
\newlabel{sec:sim_model@cref}{{[subsection][3][5,2]5.2.3}{50}}
\@writefile{toc}{\contentsline {section}{\numberline {5.3}Computer Vision}{50}{section.5.3}}
\@writefile{toc}{\contentsline {subsection}{\numberline {5.3.1}Camera Calibration}{50}{subsection.5.3.1}}
\newlabel{sec:camcalibr}{{5.3.1}{50}{Camera Calibration}{subsection.5.3.1}{}}
\newlabel{sec:camcalibr@cref}{{[subsection][1][5,3]5.3.1}{50}}
\@writefile{lof}{\contentsline {figure}{\numberline {5.2}{\ignorespaces Simulink Model of \textsc  {Scubo}}}{51}{figure.5.2}}
\newlabel{fig:sim_model}{{5.2}{51}{Simulink Model of \textsc {Scubo}}{figure.5.2}{}}
\newlabel{fig:sim_model@cref}{{[figure][2][5]5.2}{51}}
\@writefile{toc}{\contentsline {subsection}{\numberline {5.3.2}3D Modelling}{51}{subsection.5.3.2}}
\newlabel{sec:pix4d}{{5.3.2}{51}{3D Modelling}{subsection.5.3.2}{}}
\newlabel{sec:pix4d@cref}{{[subsection][2][5,3]5.3.2}{51}}
\@writefile{lof}{\contentsline {figure}{\numberline {5.3}{\ignorespaces \textsc  {Pix4d} Reconstructions under Different Circumstances}}{52}{figure.5.3}}
\newlabel{fig:pix4d}{{5.3}{52}{\textsc {Pix4d} Reconstructions under Different Circumstances}{figure.5.3}{}}
\newlabel{fig:pix4d@cref}{{[figure][3][5]5.3}{52}}
\@writefile{toc}{\contentsline {subsection}{\numberline {5.3.3}Virtual Reality}{52}{subsection.5.3.3}}
\newlabel{sec:virtualreality1}{{5.3.3}{52}{Virtual Reality}{subsection.5.3.3}{}}
\newlabel{sec:virtualreality1@cref}{{[subsection][3][5,3]5.3.3}{52}}
\@writefile{lof}{\contentsline {figure}{\numberline {5.4}{\ignorespaces Example of Virtual Scene inside of Submarine}}{52}{figure.5.4}}
\newlabel{fig:vr}{{5.4}{52}{Example of Virtual Scene inside of Submarine}{figure.5.4}{}}
\newlabel{fig:vr@cref}{{[figure][4][5]5.4}{52}}
\@writefile{toc}{\contentsline {subsubsection}{Virtual Reality Headset}{52}{section*.27}}
\newlabel{sec:vrhead}{{5.3.3}{52}{Virtual Reality Headset}{section*.27}{}}
\newlabel{sec:vrhead@cref}{{[subsection][3][5,3]5.3.3}{52}}
\@writefile{lof}{\contentsline {figure}{\numberline {5.5}{\ignorespaces \textsc  {OSVR} Virtual Reality Headset}}{53}{figure.5.5}}
\newlabel{fig:osvr}{{5.5}{53}{\textsc {OSVR} Virtual Reality Headset}{figure.5.5}{}}
\newlabel{fig:osvr@cref}{{[figure][5][5]5.5}{53}}
\@writefile{toc}{\contentsline {chapter}{\numberline {6}Summary}{55}{chapter.6}}
\@writefile{lof}{\addvspace {10\p@ }}
\@writefile{lot}{\addvspace {10\p@ }}
\@writefile{lof}{\contentsline {xchapter}{Summary}{55}{chapter.6}}
\@writefile{lot}{\contentsline {xchapter}{Summary}{55}{chapter.6}}
\newlabel{sec:summary}{{6}{55}{Summary}{chapter.6}{}}
\newlabel{sec:summary@cref}{{[chapter][6][]6}{55}}
\@writefile{toc}{\contentsline {section}{\numberline {6.1}Conclusion}{55}{section.6.1}}
\newlabel{sec:conclusion}{{6.1}{55}{Conclusion}{section.6.1}{}}
\newlabel{sec:conclusion@cref}{{[section][1][6]6.1}{55}}
\@writefile{toc}{\contentsline {section}{\numberline {6.2}Outlook}{55}{section.6.2}}
\newlabel{sec:outlook}{{6.2}{55}{Outlook}{section.6.2}{}}
\newlabel{sec:outlook@cref}{{[section][2][6]6.2}{55}}
\@writefile{@@@}{\chapterbegin }
\@writefile{@@@}{\chapterbegin }
\citation{*}
\bibstyle{bibliography/IEEEtranN}
\bibdata{bibliography/references}
\bibcite{AntonelliAntonelli2014}{{1}{2014}{{Antonelli}}{{}}}
\bibcite{Breckenridge1999}{{2}{1999}{{Breckenridge}}{{}}}
\bibcite{Fossen1994}{{3}{1994}{{Fossen}}{{}}}
\bibcite{Sola2012}{{4}{2012}{{Sola}}{{}}}
\bibcite{TrawnyRoumeliotis2005}{{5}{2005}{{Trawny and Roumeliotis}}{{}}}
\@writefile{@@@}{\chapterbegin }
\@writefile{toc}{\contentsline {chapter}{Bibliography}{61}{chapter*.30}}
\@writefile{toc}{\contentsline {chapter}{\numberline {A}Fundamentals}{63}{appendix.A}}
\@writefile{lof}{\addvspace {10\p@ }}
\@writefile{lot}{\addvspace {10\p@ }}
\@writefile{lof}{\contentsline {xchapter}{Fundamentals}{63}{appendix.A}}
\@writefile{lot}{\contentsline {xchapter}{Fundamentals}{63}{appendix.A}}
\newlabel{sec:fundamentals}{{A}{63}{Fundamentals}{appendix.A}{}}
\newlabel{sec:fundamentals@cref}{{[appendix][1][2147483647]A}{63}}
\@writefile{toc}{\contentsline {section}{\numberline {A.1}Modelling Definitions}{63}{section.A.1}}
\newlabel{data:modeldef}{{A.1}{63}{Modelling Definitions}{section.A.1}{}}
\newlabel{data:modeldef@cref}{{[subappendix][1][2147483647,1]A.1}{63}}
\@writefile{toc}{\contentsline {section}{\numberline {A.2}E-Mail transcript with Markus Inglin}{65}{section.A.2}}
\newlabel{data:email}{{A.2}{65}{E-Mail transcript with Markus Inglin}{section.A.2}{}}
\newlabel{data:email@cref}{{[subappendix][2][2147483647,1]A.2}{65}}
\@writefile{toc}{\contentsline {section}{\numberline {A.3}Camera Evaluation}{66}{section.A.3}}
\newlabel{data:camseval}{{A.3}{66}{Camera Evaluation}{section.A.3}{}}
\newlabel{data:camseval@cref}{{[subappendix][3][2147483647,1]A.3}{66}}
\@writefile{toc}{\contentsline {section}{\numberline {A.4}Volume Calculations}{67}{section.A.4}}
\newlabel{data:volume}{{A.4}{67}{Volume Calculations}{section.A.4}{}}
\newlabel{data:volume@cref}{{[subappendix][4][2147483647,1]A.4}{67}}
\@writefile{toc}{\contentsline {section}{\numberline {A.5}Full Analysis Central Unit}{68}{section.A.5}}
\newlabel{data:analysis_unit}{{A.5}{68}{Full Analysis Central Unit}{section.A.5}{}}
\newlabel{data:analysis_unit@cref}{{[subappendix][5][2147483647,1]A.5}{68}}
\@writefile{toc}{\contentsline {section}{\numberline {A.6}Weight Calculations}{71}{section.A.6}}
\newlabel{data:weight}{{A.6}{71}{Weight Calculations}{section.A.6}{}}
\newlabel{data:weight@cref}{{[subappendix][6][2147483647,1]A.6}{71}}
\@writefile{toc}{\contentsline {section}{\numberline {A.7}List of Requirements}{72}{section.A.7}}
\newlabel{data:requirements}{{A.7}{72}{List of Requirements}{section.A.7}{}}
\newlabel{data:requirements@cref}{{[subappendix][7][2147483647,1]A.7}{72}}
\@writefile{toc}{\contentsline {section}{\numberline {A.8}FMEA}{73}{section.A.8}}
\newlabel{data:fmea}{{A.8}{73}{FMEA}{section.A.8}{}}
\newlabel{data:fmea@cref}{{[subappendix][8][2147483647,1]A.8}{73}}
\@writefile{toc}{\contentsline {section}{\numberline {A.9}FMEA Description}{74}{section.A.9}}
\newlabel{data:fmea2}{{A.9}{74}{FMEA Description}{section.A.9}{}}
\newlabel{data:fmea2@cref}{{[subappendix][9][2147483647,1]A.9}{74}}
\@writefile{toc}{\contentsline {section}{\numberline {A.10}List of Clamps}{75}{section.A.10}}
\newlabel{data:clamps}{{A.10}{75}{List of Clamps}{section.A.10}{}}
\newlabel{data:clamps@cref}{{[subappendix][10][2147483647,1]A.10}{75}}
\@writefile{toc}{\contentsline {section}{\numberline {A.11}Weight and Balance}{76}{section.A.11}}
\newlabel{data:weight_balance}{{A.11}{76}{Weight and Balance}{section.A.11}{}}
\newlabel{data:weight_balance@cref}{{[subappendix][11][2147483647,1]A.11}{76}}
\@writefile{toc}{\contentsline {section}{\numberline {A.12}Gantt-Diagram}{77}{section.A.12}}
\newlabel{data:gantt}{{A.12}{77}{Gantt-Diagram}{section.A.12}{}}
\newlabel{data:gantt@cref}{{[subappendix][12][2147483647,1]A.12}{77}}
\@writefile{toc}{\contentsline {section}{\numberline {A.13}Functional Overview}{78}{section.A.13}}
\newlabel{data:funct_overview}{{A.13}{78}{Functional Overview}{section.A.13}{}}
\newlabel{data:funct_overview@cref}{{[subappendix][13][2147483647,1]A.13}{78}}
\@writefile{toc}{\contentsline {section}{\numberline {A.14}Security Concept}{79}{section.A.14}}
\newlabel{data:sgu}{{A.14}{79}{Security Concept}{section.A.14}{}}
\newlabel{data:sgu@cref}{{[subappendix][14][2147483647,1]A.14}{79}}
\@writefile{toc}{\contentsline {section}{\numberline {A.15}Benefit Analysis}{82}{section.A.15}}
\newlabel{data:benefit}{{A.15}{82}{Benefit Analysis}{section.A.15}{}}
\newlabel{data:benefit@cref}{{[subappendix][15][2147483647,1]A.15}{82}}
\@writefile{toc}{\contentsline {section}{\numberline {A.16}Estimation Battery Capacity}{83}{section.A.16}}
\newlabel{data:battery_capacity}{{A.16}{83}{Estimation Battery Capacity}{section.A.16}{}}
\newlabel{data:battery_capacity@cref}{{[subappendix][16][2147483647,1]A.16}{83}}
\@writefile{toc}{\contentsline {section}{\numberline {A.17}Shell Ideas}{84}{section.A.17}}
\newlabel{data:shell}{{A.17}{84}{Shell Ideas}{section.A.17}{}}
\newlabel{data:shell@cref}{{[subappendix][17][2147483647,1]A.17}{84}}
\@writefile{toc}{\contentsline {chapter}{\numberline {B}Technical Drawings}{87}{appendix.B}}
\@writefile{lof}{\addvspace {10\p@ }}
\@writefile{lot}{\addvspace {10\p@ }}
\@writefile{lof}{\contentsline {xchapter}{Technical Drawings}{87}{appendix.B}}
\@writefile{lot}{\contentsline {xchapter}{Technical Drawings}{87}{appendix.B}}
\newlabel{sec:tz}{{B}{87}{Technical Drawings}{appendix.B}{}}
\newlabel{sec:tz@cref}{{[appendix][2][2147483647]B}{87}}
\@writefile{toc}{\contentsline {chapter}{\numberline {C}Datasheets}{107}{appendix.C}}
\@writefile{lof}{\addvspace {10\p@ }}
\@writefile{lot}{\addvspace {10\p@ }}
\@writefile{lof}{\contentsline {xchapter}{Datasheets}{107}{appendix.C}}
\@writefile{lot}{\contentsline {xchapter}{Datasheets}{107}{appendix.C}}
\newlabel{sec:datasheets}{{C}{107}{Datasheets}{appendix.C}{}}
\newlabel{sec:datasheets@cref}{{[appendix][3][2147483647]C}{107}}
\@writefile{toc}{\contentsline {section}{\numberline {C.1}Datasheet \normalfont  \textsc  {Scubo}}{108}{section.C.1}}
\newlabel{data:factsheet}{{C.1}{108}{Datasheet \normalfont \textsc {Scubo}}{section.C.1}{}}
\newlabel{data:factsheet@cref}{{[subappendix][1][2147483647,3]C.1}{108}}
\@writefile{toc}{\contentsline {section}{\numberline {C.2}Linelaser}{109}{section.C.2}}
\newlabel{data:laser}{{C.2}{109}{Linelaser}{section.C.2}{}}
\newlabel{data:laser@cref}{{[subappendix][2][2147483647,3]C.2}{109}}
\@writefile{toc}{\contentsline {section}{\numberline {C.3}VI-Sensor}{110}{section.C.3}}
\newlabel{data:visensor}{{C.3}{110}{VI-Sensor}{section.C.3}{}}
\newlabel{data:visensor@cref}{{[subappendix][3][2147483647,3]C.3}{110}}
\@writefile{toc}{\contentsline {section}{\numberline {C.4}Intel NUC}{111}{section.C.4}}
\newlabel{data:nuc}{{C.4}{111}{Intel NUC}{section.C.4}{}}
\newlabel{data:nuc@cref}{{[subappendix][4][2147483647,3]C.4}{111}}
\@writefile{toc}{\contentsline {section}{\numberline {C.5}UDOO QUAD}{112}{section.C.5}}
\newlabel{data:udoo}{{C.5}{112}{UDOO QUAD}{section.C.5}{}}
\newlabel{data:udoo@cref}{{[subappendix][5][2147483647,3]C.5}{112}}
\@writefile{toc}{\contentsline {section}{\numberline {C.6}UI-1221LE-M-GL -- Stereo Camera}{113}{section.C.6}}
\newlabel{data:cam1}{{C.6}{113}{UI-1221LE-M-GL -- Stereo Camera}{section.C.6}{}}
\newlabel{data:cam1@cref}{{[subappendix][6][2147483647,3]C.6}{113}}
\@writefile{toc}{\contentsline {section}{\numberline {C.7}UI-1251LE-M-GL -- Camera for 3D Modelling}{114}{section.C.7}}
\newlabel{data:cam2}{{C.7}{114}{UI-1251LE-M-GL -- Camera for 3D Modelling}{section.C.7}{}}
\newlabel{data:cam2@cref}{{[subappendix][7][2147483647,3]C.7}{114}}
\@writefile{toc}{\contentsline {section}{\numberline {C.8}UI-3251LE-C-HQ -- Colour Front Camera}{115}{section.C.8}}
\newlabel{data:cam3}{{C.8}{115}{UI-3251LE-C-HQ -- Colour Front Camera}{section.C.8}{}}
\newlabel{data:cam3@cref}{{[subappendix][8][2147483647,3]C.8}{115}}
\@writefile{toc}{\contentsline {section}{\numberline {C.9}Thrusters -- \normalfont  \textsc  {BlueRobotics T200}}{116}{section.C.9}}
\newlabel{data:br_t200}{{C.9}{116}{Thrusters -- \normalfont \textsc {BlueRobotics T200}}{section.C.9}{}}
\newlabel{data:br_t200@cref}{{[subappendix][9][2147483647,3]C.9}{116}}
\@writefile{toc}{\contentsline {section}{\numberline {C.10}Threaded Nozzle}{119}{section.C.10}}
\newlabel{data:tuelle}{{C.10}{119}{Threaded Nozzle}{section.C.10}{}}
\newlabel{data:tuelle@cref}{{[subappendix][10][2147483647,3]C.10}{119}}
\@writefile{toc}{\contentsline {section}{\numberline {C.11}C615 Logitech -- Webcam}{120}{section.C.11}}
\newlabel{data:webcam}{{C.11}{120}{C615 Logitech -- Webcam}{section.C.11}{}}
\newlabel{data:webcam@cref}{{[subappendix][11][2147483647,3]C.11}{120}}
\@writefile{toc}{\contentsline {chapter}{\numberline {D}Testing Protocols}{121}{appendix.D}}
\@writefile{lof}{\addvspace {10\p@ }}
\@writefile{lot}{\addvspace {10\p@ }}
\@writefile{lof}{\contentsline {xchapter}{Testing Protocols}{121}{appendix.D}}
\@writefile{lot}{\contentsline {xchapter}{Testing Protocols}{121}{appendix.D}}
\newlabel{sec:testing}{{D}{121}{Testing Protocols}{appendix.D}{}}
\newlabel{sec:testing@cref}{{[appendix][4][2147483647]D}{121}}
\@writefile{toc}{\contentsline {section}{\numberline {D.1}\normalfont  {\textsc  {Pix4D}} by Night}{122}{section.D.1}}
\newlabel{data:pix4d_night}{{D.1}{122}{\normalfont {\textsc {Pix4D}} by Night}{section.D.1}{}}
\newlabel{data:pix4d_night@cref}{{[subappendix][1][2147483647,4]D.1}{122}}
\@writefile{toc}{\contentsline {section}{\numberline {D.2}\normalfont  {\textsc  {Pix4D}} by Day with Lights}{123}{section.D.2}}
\newlabel{data:pix4d_tag_licht}{{D.2}{123}{\normalfont {\textsc {Pix4D}} by Day with Lights}{section.D.2}{}}
\newlabel{data:pix4d_tag_licht@cref}{{[subappendix][2][2147483647,4]D.2}{123}}
\@writefile{toc}{\contentsline {section}{\numberline {D.3}\normalfont  {\textsc  {Pix4D}} by Day without Lights}{124}{section.D.3}}
\newlabel{data:pix4d_day}{{D.3}{124}{\normalfont {\textsc {Pix4D}} by Day without Lights}{section.D.3}{}}
\newlabel{data:pix4d_day@cref}{{[subappendix][3][2147483647,4]D.3}{124}}
\@writefile{toc}{\contentsline {section}{\numberline {D.4}Hole Dimensions}{125}{section.D.4}}
\newlabel{data:t200}{{D.4}{125}{Hole Dimensions}{section.D.4}{}}
\newlabel{data:t200@cref}{{[subappendix][4][2147483647,4]D.4}{125}}
\@writefile{toc}{\contentsline {section}{\numberline {D.5}Ultrasonic}{126}{section.D.5}}
\newlabel{data:ultrasound}{{D.5}{126}{Ultrasonic}{section.D.5}{}}
\newlabel{data:ultrasound@cref}{{[subappendix][5][2147483647,4]D.5}{126}}
\@writefile{toc}{\contentsline {section}{\numberline {D.6}Lego Testing}{127}{section.D.6}}
\newlabel{data:lego}{{D.6}{127}{Lego Testing}{section.D.6}{}}
\newlabel{data:lego@cref}{{[subappendix][6][2147483647,4]D.6}{127}}
\global\mtcsecondpartfalse
